IL854 0 0 false 3
NA759 62.84 200 true 2
NM557 222.92 0 true 1
PV481 -245.0 400 false 2
RJ275 438.74 0 true 3
HI519 783.11 0 true 1
QL622 0 0 false 3
GV405 100.6 0 true 3
YP762 0 0 false 3
KC902 99.8 600 false 2
DE582 -991.72 1000 true 2
VE171 0 0 false 3